
{
	"info": {
		"_postman_id": "1f0e2465-60c0-46ec-8aa6-41a5c591f7ae",
		"name": "OGS_v2",
		"schema": "https://schema.getpostman.com/json/collection/v2.1.0/collection.json"
	},
	"item": [
		{
			"name": "Recent OGS Player History",
			"event": [
				{
					"listen": "test",
					"script": {
						"id": "81c161e8-d9f7-4282-b7da-3756c0eebf44",
						"exec": [
							"var thisUserID = pm.variables.get(\"PLAYERID\");\r",
							"console.log(\"thisUserID=\"+thisUserID)\r",
							"var template = `\r",
							"<script src=\"https://d3js.org/d3.v5.min.js\"></script>\r",
							"<div id=\"scatter-plot\"></div>\r",
							"<style>\r",
							".tooltip{\r",
							"    position: absolute;\r",
							"    font-size: 12px;\r",
							"    width: auto;\r",
							"    height: auto;\r",
							"    pointer-events: none;\r",
							"    background-color: white;\r",
							"    padding: 3px;\r",
							"    opacity: 0;\r",
							"}\r",
							"#xAxis{\r",
							"    text-anchor: middle;\r",
							"}\r",
							"#yAxis{\r",
							"    text-anchor: middle;\r",
							"}\r",
							"#legendTitle{\r",
							"    font-size: 18px;\r",
							"}\r",
							".legendItem{\r",
							"    font-size: 14px;\r",
							"}\r",
							"#graphTitle{\r",
							"    text-anchor: middle;\r",
							"    font-size: 20px;\r",
							"    font-weight: bold;\r",
							"    \r",
							"}\r",
							"</style>\r",
							"<script>\r",
							"    \r",
							"    pm.getData( function(err, value){\r",
							"        let graphTitle;\r",
							"        let xAxisLabel;\r",
							"        let yAxisLabel;\r",
							"        let data;\r",
							"        let colors;\r",
							"        let datasetLabels;\r",
							"\r",
							"        \r",
							"        xAxisLabel = value.xAxisLabel;\r",
							"        yAxisLabel = value.yAxisLabel;\r",
							"        data = value.data;\r",
							"        colors = value.colors;\r",
							"        datasetLabels = value.datasetLabels;\r",
							"        graphTitle = value.graphTitle;\r",
							"\r",
							"    \r",
							"        //set the dimensions and margins of the graph\r",
							"        let legendWidth = 170;\r",
							"        let legendItemSpacing = 20;\r",
							"        \r",
							"        let margins = {top: 60, right: 30 + legendWidth, bottom: 60, left: 75};\r",
							"        let width = 1400 - margins.left - margins.right;\r",
							"        let height = 600 - margins.top - margins.bottom;\r",
							"        \r",
							"        //add svg object to the page\r",
							"        let svg = d3.select(\"#scatter-plot\")\r",
							"          .append(\"svg\")\r",
							"            .attr(\"width\", width + margins.left + margins.right)\r",
							"            .attr(\"height\", height + margins.top + margins.bottom)\r",
							"        svg.append(\"rect\")\r",
							"            .attr(\"width\", \"100%\")\r",
							"            .attr(\"height\", \"100%\")\r",
							"            .attr(\"fill\", \"#F5F5F5\")    \r",
							"        //create title\r",
							"        svg.append(\"text\")\r",
							"            .attr(\"id\", \"graphTitle\")\r",
							"            .attr(\"transform\", \"translate(\" + ((width + margins.left + margins.right)/2) + \" ,\" + margins.top/2 + \")\")\r",
							"            .text(graphTitle);\r",
							"        svg = svg.append(\"g\")\r",
							"            .attr(\"transform\", \"translate(\" + margins.left + \",\" + margins.top + \")\");\r",
							"            \r",
							"            \r",
							"        //add up axis\r",
							"        let xMin = 100;\r",
							"        let xMax = 0;\r",
							"        let yMin = 1000;\r",
							"        let yMax = 100;\r",
							"\r",
							"\r",
							"        for (let dataset of data){\r",
							"            for (let datapoint of dataset){\r",
							"                if (( datapoint[0] < xMin) ){\r",
							"                    xMin = datapoint[0];\r",
							"                }\r",
							"                if (datapoint[0] > xMax){\r",
							"                    xMax = datapoint[0];\r",
							"                }\r",
							"                if ( (datapoint[1] < yMin) && (datapoint[1] > 0 )){\r",
							"                    yMin = datapoint[1];\r",
							"                }\r",
							"                if (datapoint[1] > yMax){\r",
							"                    yMax = datapoint[1];\r",
							"                }\r",
							"\r",
							"                if ((datapoint[2] < yMin) && (datapoint[2] > 0 )) {       // handle max and min values for second datapoints\r",
							"                    yMin = datapoint[2];\r",
							"                }\r",
							"                if (datapoint[2] > yMax) {\r",
							"                    yMax = datapoint[2];\r",
							"                }\r",
							"\r",
							"            }\r",
							"        }\r",
							"\r",
							"\r",
							"        \r",
							"        let x = d3.scaleLinear()\r",
							"            .domain([xMin, xMax])\r",
							"            .range([0,width]);\r",
							"        svg.append(\"g\")\r",
							"            .attr(\"transform\", \"translate(0,\" + height + \")\")\r",
							"            .call(d3.axisBottom(x));\r",
							"        \r",
							"        let y = d3.scaleLinear()\r",
							"            .domain([yMin, yMax])\r",
							"            .range([height, 0]);\r",
							"        svg.append(\"g\")\r",
							"            .call(d3.axisLeft(y));\r",
							"        \r",
							"        svg.append(\"g\")\r",
							"            .attr(\"class\", \"grid\")\r",
							"            .attr(\"transform\", \"translate(0,\" + height + \")\")\r",
							"            .call(\r",
							"              d3\r",
							"                .axisBottom(x)\r",
							"                .ticks(5)\r",
							"                .tickSize(-height)\r",
							"                .tickFormat(\"\")\r",
							"            );    \r",
							"        svg.append(\"g\")\r",
							"            .attr(\"class\", \"grid\")\r",
							"            .call(\r",
							"              d3\r",
							"                .axisLeft(y)\r",
							"                .ticks(5)\r",
							"                .tickSize(-width)\r",
							"                .tickFormat(\"\")\r",
							"            );\r",
							"            \r",
							"        svg.selectAll(\".grid .tick line\")\r",
							"            .attr(\"stroke\", \"#C4C4C4\")\r",
							"            .attr(\"stroke-width\", 1);\r",
							"        svg.selectAll(\".grid path\").remove();\r",
							"        \r",
							"        //create hover tooltip\r",
							"        let tooltip = d3.select(\"#scatter-plot\").append(\"div\")\r",
							"            .attr(\"class\", \"tooltip\")\r",
							"        // tooltip mouseover event handler\r",
							"        let tipMouseover = function(d){\r",
							"            tooltip.html(xAxisLabel + \": <b>\" + d[0] + \"</b><br/>\" + yAxisLabel + \": <b>\" + d[1] + \"</b>\")\r",
							"                .style(\"left\", (d3.event.pageX + 15) + \"px\")\r",
							"                .style(\"top\", (d3.event.pageY - 20) + \"px\")\r",
							"              .transition()\r",
							"                .duration(200)      // ms\r",
							"                .style(\"opacity\", 0.9)\r",
							"        };\r",
							"        // tooltip mouseout event handler\r",
							"        let tipMouseout = function(d){\r",
							"            tooltip.transition()\r",
							"                .duration(300)\r",
							"                .style(\"opacity\", 0);\r",
							"        };\r",
							"\r",
							"            \r",
							"        //add datapoints\r",
							"        let dotSize = 4;\r",
							"        for (let i = 0; i < 1; i++){\r",
							"\r",
							"\r",
							"            // Plot First Point (WINS)\r",
							"            dotSize = d => d[4];\r",
							"            svg.append(\"g\")\r",
							"                .selectAll(\"point\")\r",
							"                .data(data[i])\r",
							"                .enter()\r",
							"            .append(\"circle\")\r",
							"                .attr(\"r\", dotSize)\r",
							"                .style(\"fill\", colors[i])\r",
							"                .attr(\"cx\", 0)\r",
							"                .attr(\"cy\", height)\r",
							"                .on(\"mouseover\", tipMouseover)\r",
							"                .on(\"mouseout\", tipMouseout)\r",
							"            .transition(d3.transition().duration(500).ease(d3.easeQuadOut))      \r",
							"                .attr(\"cx\", d => x(d[0]))\r",
							"                .attr(\"cy\", d => y(d[1]));\r",
							"        \r",
							"\r",
							"            //\r",
							"            // Plot Second Point (LOSSES)\r",
							"            //\r",
							"\r",
							"            svg.append(\"g\")\r",
							"              .selectAll(\"point\")\r",
							"              .data(data[i])\r",
							"              .enter()\r",
							"            .append(\"circle\")\r",
							"              .attr(\"r\", dotSize)\r",
							"              .style(\"fill\", \"#FF0000\")\r",
							"              .attr(\"cx\", 0)\r",
							"              .attr(\"cy\", height)\r",
							"              .on(\"mouseover\", tipMouseover)\r",
							"              .on(\"mouseout\", tipMouseout)\r",
							"            .transition(d3.transition().duration(500).ease(d3.easeQuadOut))      \r",
							"              .attr(\"cx\", d => x(d[0]))\r",
							"              .attr(\"cy\", d => y(d[2]));\r",
							"\r",
							"\r",
							"            //\r",
							"            // Plot Third Point to mark TimeOuts, with a small Black Dot in the centre of the win/loss\r",
							"            //\r",
							"\r",
							"            svg.append(\"g\")\r",
							"              .selectAll(\"point\")\r",
							"              .data(data[i])\r",
							"              .enter()\r",
							"            .append(\"circle\")\r",
							"              .attr(\"r\", 1)\r",
							"              .style(\"fill\", \"#000000\")\r",
							"              .attr(\"cx\", 0)\r",
							"              .attr(\"cy\", height)\r",
							"              .on(\"mouseover\", tipMouseover)\r",
							"              .on(\"mouseout\", tipMouseout)\r",
							"            .transition(d3.transition().duration(500).ease(d3.easeQuadOut))      \r",
							"              .attr(\"cx\", d => x(d[0]))\r",
							"              .attr(\"cy\", d => y(d[3]));\r",
							"\r",
							"            // above code initializes each data point to (0,0) and then transitions them to their correct position\r",
							"        }\r",
							"        \r",
							"        //create axises\r",
							"        svg.append(\"text\")\r",
							"            .attr(\"id\", \"xAxis\")\r",
							"            .attr(\"transform\", \"translate(\" + (width/2) + \" ,\" + (height + margins.bottom*2/3) + \")\")\r",
							"            .text(xAxisLabel);\r",
							"            \r",
							"        svg.append(\"text\")\r",
							"            .attr(\"id\", \"yAxis\")\r",
							"            .attr(\"transform\", \"rotate(-90)\")\r",
							"            .attr(\"y\", 10 - margins.left)\r",
							"            .attr(\"x\", 0 - (height/2))\r",
							"            .attr(\"dy\", \"1em\")\r",
							"            .text(yAxisLabel);\r",
							"        \r",
							"        //create legend\r",
							"        var legend = svg.append('g')\r",
							"            .attr(\"class\", \"legend\")\r",
							"            .attr(\"transform\", \"translate(\" + (margins.left/2 + width) + \", \" + height/4 + \")\" );\r",
							"        legend.append(\"text\")\r",
							"            .attr(\"id\", \"legendTitle\")\r",
							"            .attr(\"fill\", \"#000000\")\r",
							"            .text(\"Result\");\r",
							"        var legendItems = legend.selectAll(\"g\")\r",
							"            .data(datasetLabels)\r",
							"            .enter()\r",
							"          .append(\"g\")\r",
							"            .attr(\"class\", \"item\")\r",
							"            .attr(\"transform\", function(d,i){ return \"translate(0, \" + ((i+1)*legendItemSpacing) + \")\"; });\r",
							"        legendItems.append(\"circle\")\r",
							"            .attr(\"r\", 5)\r",
							"            .attr(\"fill\", (d, i) => colors[i]);\r",
							"        legendItems.append(\"text\")\r",
							"            .attr(\"class\", \"legendItem\")\r",
							"            .attr(\"transform\", \"translate(\" + legendItemSpacing + \", 0)\")\r",
							"            .attr(\"fill\", \"#000000\")\r",
							"            .attr(\"alignment-baseline\", \"middle\")\r",
							"            .text( function(d, i){ return d } );\r",
							"        \r",
							"    })\r",
							"\r",
							"</script>\r",
							"`;\r",
							"\r",
							"\r",
							"var response = pm.response.json();\r",
							"\r",
							"var CurrentTimeDate = new Date();\r",
							"var CurrentTime = Date.parse(CurrentTimeDate);\r",
							"console.log(\"CurrentTime = \" + CurrentTime);\r",
							"\r",
							"var ListOfGameResults = response.results;\r",
							"var NumberOfGamesReturned = ListOfGameResults.length;\r",
							"var DaysSinceGame = 0;\r",
							"console.log(\"count = \" + response.count);\r",
							"console.log(\"Number of game results = \" + ListOfGameResults.length);\r",
							"let ResultsArray = [];\r",
							"let PlottableGames = 0;\r",
							"\r",
							"for (i=0;i<NumberOfGamesReturned;i++) {\r",
							"\r",
							"    if ( ( ListOfGameResults[i].annulled == false) && (ListOfGameResults[i].ranked == true) && (ListOfGameResults[i].width == 19) && (ListOfGameResults[i].height == 19) ) {\r",
							"        PlottableGames++;\r",
							"        var unixtime = Date.parse(ListOfGameResults[i].ended);\r",
							"        DaysSinceGame = (CurrentTime - unixtime) / 86400000;        // this is the number of days since the game ended\r",
							"        GameDurationInSeconds = (Date.parse(ListOfGameResults[i].ended) - Date.parse(ListOfGameResults[i].started))/ 1000;\r",
							"\r",
							"        GameDurationInSeconds = GameDurationInSeconds - 600;  // Remove ten minutes from game time - to highlight the difference between quite fast and very fast games\r",
							"        if (GameDurationInSeconds < 10) {\r",
							"            GameDurationInSeconds = 10;\r",
							"        }\r",
							"\r",
							"        GameSpeed =  8 - Math.log10(GameDurationInSeconds); // 4 month game is about 10,000,000 seconds, and log(10000000) = 7\r",
							"                                                            // Charted dot thickness =  GameSpeed = 8 - log(GameDuration)     \r",
							"                                                            // a 10 minute game would have a dot size of 8 - log(10) = 8 - 1 = 7, which is very large \r",
							"                                                            // a 20 minute game would have a dot size of 8 - log(1200-600) = 8 - 2.8 = 5.2, which is quite large\r",
							"                                                            // a ten day day would have a dot size of 8 - log(864000-600) = 8 - 5.9 = 2.1, which is quite small.  \r",
							"        console.log(\"GameDuration = \" + GameDurationInSeconds + \", GameSpeed = \" + GameSpeed);\r",
							"        if ( ListOfGameResults[i].black == thisUserID ) {        // generate data based on this player playing BLACK\r",
							"            if (ListOfGameResults[i].white_lost == true) { thisResult = \"Win\"} else { thisResult = \"Loss\"}\r",
							"            OpponentID = ListOfGameResults[i].players.white.id;\r",
							"            OpponentRating = ListOfGameResults[i].players.white.ratings.overall.rating;\r",
							"            console.log(\"Opponent W userid = \" + ListOfGameResults[i].players.white.id + \" \" + ListOfGameResults[i].players.white.ratings.overall.rating + \" \" + thisResult + \" \" + GameSpeed + \" \" + DaysSinceGame);\r",
							"        } else {                                                            // generate data based on this player playing WHITE\r",
							"            console.log(\"x: black = \" + ListOfGameResults[i].black + \", thisUserID = \" + thisUserID);\r",
							"            if (ListOfGameResults[i].white_lost == true) { thisResult = \"Loss\"} else { thisResult = \"Win\"}\r",
							"            OpponentID = ListOfGameResults[i].players.black.id;\r",
							"            OpponentRating = ListOfGameResults[i].players.black.ratings.overall.rating;\r",
							"            console.log(\"Opponent B userid = \" + ListOfGameResults[i].players.black.id + \" \" + ListOfGameResults[i].players.black.ratings.overall.rating + \" \" + thisResult+ \" \" + GameSpeed + \" \" + DaysSinceGame);\r",
							"        }\r",
							"        GamesPerWeek = Math.floor(7 * PlottableGames /  DaysSinceGame) ;\r",
							"        console.log(\"Games Per Week = \" + GamesPerWeek);\r",
							"\r",
							"        // PUSH results into structure for charting\r",
							"        //\r",
							"        // Fields:  1   Time (days since current time)\r",
							"        //          2   Opponent Ranking for WIN (displayed in green)\r",
							"        //          3   Opponent Ranking for LOSS (displayed in red)\r",
							"        //          4   Opponent Ranking for Timed Out Result (small Black Dot inside larger red/green dot)\r",
							"        //          5   Game Duration (log of average move time) used for size of chart point - so that live games have small dots and slow correspondance games have larger dots\r",
							"        if (ListOfGameResults[i].outcome == \"Timeout\") {            // Add fourth item to mark TimeOut\r",
							"            if (thisResult == \"Win\") {\r",
							"                ResultsArray.push([DaysSinceGame,  Math.round(OpponentRating), 0, Math.round(OpponentRating), GameSpeed,  \"Game=\" + ListOfGameResults[i].id]   );\r",
							"            } else {\r",
							"                ResultsArray.push([DaysSinceGame, 0,  Math.round(OpponentRating), Math.round(OpponentRating), GameSpeed,  \"Game=\" + ListOfGameResults[i].id]  );          \r",
							"            }\r",
							"        } else {\r",
							"            if (thisResult == \"Win\") {\r",
							"                ResultsArray.push([DaysSinceGame,  Math.round(ListOfGameResults[i].players.white.ratings.overall.rating), 0, 0, GameSpeed,\"Game=\" + ListOfGameResults[i].id]  );\r",
							"            } else {\r",
							"                ResultsArray.push([DaysSinceGame, 0,  Math.round(ListOfGameResults[i].players.white.ratings.overall.rating), 0, GameSpeed,\"Game=\" + ListOfGameResults[i].id]   );           \r",
							"            }\r",
							"    }\r",
							"    }\r",
							"}\r",
							"\r",
							"console.log(ResultsArray);\r",
							"\r",
							"let GamesConsidered = ResultsArray.length;\r",
							"\r",
							"let title = \"RANKED 19x19 Results by Opponant's ELO Rank (\" + GamesConsidered + \" games @ \" + GamesPerWeek + \"/week]\";\r",
							"let xAxis = \"Time (Number of Days Ago)\";\r",
							"let yAxis = \"Opponent's ELO Rank\";\r",
							"let WorkloadData = \"ResultsArray\";\r",
							"let graphColors = [\"#008000\" , \"#FF0000\"];\r",
							"let dataLabels = [\"Wins\", \"Losses\"];\r",
							"\r",
							"pm.visualizer.set(template, {\r",
							"    graphTitle: title,\r",
							"    xAxisLabel: xAxis,\r",
							"    yAxisLabel: yAxis,\r",
							"    data: [ResultsArray],\r",
							"    colors: graphColors,\r",
							"    datasetLabels: dataLabels\r",
							"} \r",
							"\r",
							");\r",
							"\r",
							""
						],
						"type": "text/javascript"
					}
				}
			],
			"request": {
				"method": "GET",
				"header": [],
				"body": { "mode": "raw", "raw": "" },
				"url": {
					"raw": "https://target:8080/api/v1/players/137398/games/?page_size=100&page=1&source=play&ended__isnull=false&ordering=-ended",
					"protocol": "https",
					"host": [
						"target"
					],
					"port": "8080",
					"path": [
						"api",
						"v1",
						"players",
						"137398",
						"games",
						""
					],
					"query": [
						{
							"key": "page_size",
							"value": "100"
						},
						{
							"key": "page",
							"value": "1"
						},
						{
							"key": "source",
							"value": "play"
						},
						{
							"key": "ended__isnull",
							"value": "false"
						},
						{
							"key": "ordering",
							"value": "-ended"
						}
					]
				},
				"description": "This API call retrieves the most recent 100 games from OGS game history, and the plots the ranked and non-annulled 19x19 games in a Postman Visualization.\r\n\r\nResults are shown as colored dots on a time scale in days, agaist the ELO rank. Wins are green and losses are red, but if a game is a 'Timeout' then it is displayed with a central black dot."
			},
			"response": []
		}
	],
	"event": [
		{
			"listen": "prerequest",
			"script": {
				"id": "f71969ba-5a75-4835-9dfa-3d9322d038b4",
				"type": "text/javascript",
				"exec": [
					""
				]
			}
		},
		{
			"listen": "test",
			"script": {
				"id": "aacd2897-5ddd-456a-848a-7cc4ef784b06",
				"type": "text/javascript",
				"exec": [
					""
				]
			}
		}
	],
	"protocolProfileBehavior": {}
}
